%YAML 1.1
%TAG !u! tag:unity3d.com,2011:
--- !u!1 &2958921903730567975
GameObject:
  m_ObjectHideFlags: 0
  m_CorrespondingSourceObject: {fileID: 0}
  m_PrefabInstance: {fileID: 0}
  m_PrefabAsset: {fileID: 0}
  serializedVersion: 6
  m_Component:
  - component: {fileID: 4471223595060178236}
  - component: {fileID: 2796411294640303148}
  m_Layer: 31
  m_Name: Pallet 1
  m_TagString: Untagged
  m_Icon: {fileID: 0}
  m_NavMeshLayer: 0
  m_StaticEditorFlags: 0
  m_IsActive: 1
--- !u!4 &4471223595060178236
Transform:
  m_ObjectHideFlags: 0
  m_CorrespondingSourceObject: {fileID: 0}
  m_PrefabInstance: {fileID: 0}
  m_PrefabAsset: {fileID: 0}
  m_GameObject: {fileID: 2958921903730567975}
  m_LocalRotation: {x: 0, y: 0, z: 0, w: 1}
  m_LocalPosition: {x: 0, y: 0, z: 0}
  m_LocalScale: {x: 1, y: 1, z: 1}
  m_Children:
  - {fileID: 6949625905064839774}
  m_Father: {fileID: 0}
  m_RootOrder: 0
  m_LocalEulerAnglesHint: {x: 0, y: 0, z: 0}
--- !u!156049354 &2796411294640303148
Grid:
  m_ObjectHideFlags: 0
  m_CorrespondingSourceObject: {fileID: 0}
  m_PrefabInstance: {fileID: 0}
  m_PrefabAsset: {fileID: 0}
  m_GameObject: {fileID: 2958921903730567975}
  m_Enabled: 1
  m_CellSize: {x: 1, y: 1, z: 0}
  m_CellGap: {x: 0, y: 0, z: 0}
  m_CellLayout: 0
  m_CellSwizzle: 0
--- !u!1 &9180736790668432484
GameObject:
  m_ObjectHideFlags: 0
  m_CorrespondingSourceObject: {fileID: 0}
  m_PrefabInstance: {fileID: 0}
  m_PrefabAsset: {fileID: 0}
  serializedVersion: 6
  m_Component:
  - component: {fileID: 6949625905064839774}
  - component: {fileID: 1933744386241558668}
  - component: {fileID: 7847717452767377992}
  m_Layer: 31
  m_Name: Layer1
  m_TagString: Untagged
  m_Icon: {fileID: 0}
  m_NavMeshLayer: 0
  m_StaticEditorFlags: 0
  m_IsActive: 1
--- !u!4 &6949625905064839774
Transform:
  m_ObjectHideFlags: 0
  m_CorrespondingSourceObject: {fileID: 0}
  m_PrefabInstance: {fileID: 0}
  m_PrefabAsset: {fileID: 0}
  m_GameObject: {fileID: 9180736790668432484}
  m_LocalRotation: {x: -0, y: -0, z: -0, w: 1}
  m_LocalPosition: {x: 0, y: 0, z: 0}
  m_LocalScale: {x: 1, y: 1, z: 1}
  m_Children: []
  m_Father: {fileID: 4471223595060178236}
  m_RootOrder: 0
  m_LocalEulerAnglesHint: {x: 0, y: 0, z: 0}
--- !u!1839735485 &1933744386241558668
Tilemap:
  m_ObjectHideFlags: 0
  m_CorrespondingSourceObject: {fileID: 0}
  m_PrefabInstance: {fileID: 0}
  m_PrefabAsset: {fileID: 0}
  m_GameObject: {fileID: 9180736790668432484}
  m_Enabled: 1
  m_Tiles:
  - first: {x: -2, y: -5, z: 0}
    second:
      m_TileIndex: 51
      m_TileSpriteIndex: 51
      m_TileMatrixIndex: 0
      m_TileColorIndex: 0
      m_ObjectToInstantiate: {fileID: 0}
      m_TileFlags: 1
      m_ColliderType: 1
  - first: {x: -1, y: -5, z: 0}
    second:
      m_TileIndex: 52
      m_TileSpriteIndex: 52
      m_TileMatrixIndex: 0
      m_TileColorIndex: 0
      m_ObjectToInstantiate: {fileID: 0}
      m_TileFlags: 1
      m_ColliderType: 1
  - first: {x: 0, y: -5, z: 0}
    second:
      m_TileIndex: 53
      m_TileSpriteIndex: 53
      m_TileMatrixIndex: 0
      m_TileColorIndex: 0
      m_ObjectToInstantiate: {fileID: 0}
      m_TileFlags: 1
      m_ColliderType: 1
  - first: {x: 1, y: -5, z: 0}
    second:
      m_TileIndex: 54
      m_TileSpriteIndex: 54
      m_TileMatrixIndex: 0
      m_TileColorIndex: 0
      m_ObjectToInstantiate: {fileID: 0}
      m_TileFlags: 1
      m_ColliderType: 1
  - first: {x: 2, y: -5, z: 0}
    second:
      m_TileIndex: 55
      m_TileSpriteIndex: 55
      m_TileMatrixIndex: 0
      m_TileColorIndex: 0
      m_ObjectToInstantiate: {fileID: 0}
      m_TileFlags: 1
      m_ColliderType: 1
  - first: {x: 3, y: -5, z: 0}
    second:
      m_TileIndex: 56
      m_TileSpriteIndex: 56
      m_TileMatrixIndex: 0
      m_TileColorIndex: 0
      m_ObjectToInstantiate: {fileID: 0}
      m_TileFlags: 1
      m_ColliderType: 1
  - first: {x: -2, y: -4, z: 0}
    second:
      m_TileIndex: 43
      m_TileSpriteIndex: 43
      m_TileMatrixIndex: 0
      m_TileColorIndex: 0
      m_ObjectToInstantiate: {fileID: 0}
      m_TileFlags: 1
      m_ColliderType: 1
  - first: {x: -1, y: -4, z: 0}
    second:
      m_TileIndex: 44
      m_TileSpriteIndex: 44
      m_TileMatrixIndex: 0
      m_TileColorIndex: 0
      m_ObjectToInstantiate: {fileID: 0}
      m_TileFlags: 1
      m_ColliderType: 1
  - first: {x: 0, y: -4, z: 0}
    second:
      m_TileIndex: 45
      m_TileSpriteIndex: 45
      m_TileMatrixIndex: 0
      m_TileColorIndex: 0
      m_ObjectToInstantiate: {fileID: 0}
      m_TileFlags: 1
      m_ColliderType: 1
  - first: {x: 1, y: -4, z: 0}
    second:
      m_TileIndex: 46
      m_TileSpriteIndex: 46
      m_TileMatrixIndex: 0
      m_TileColorIndex: 0
      m_ObjectToInstantiate: {fileID: 0}
      m_TileFlags: 1
      m_ColliderType: 1
  - first: {x: 3, y: -4, z: 0}
    second:
      m_TileIndex: 47
      m_TileSpriteIndex: 47
      m_TileMatrixIndex: 0
      m_TileColorIndex: 0
      m_ObjectToInstantiate: {fileID: 0}
      m_TileFlags: 1
      m_ColliderType: 1
  - first: {x: 4, y: -4, z: 0}
    second:
      m_TileIndex: 48
      m_TileSpriteIndex: 48
      m_TileMatrixIndex: 0
      m_TileColorIndex: 0
      m_ObjectToInstantiate: {fileID: 0}
      m_TileFlags: 1
      m_ColliderType: 1
  - first: {x: 5, y: -4, z: 0}
    second:
      m_TileIndex: 49
      m_TileSpriteIndex: 49
      m_TileMatrixIndex: 0
      m_TileColorIndex: 0
      m_ObjectToInstantiate: {fileID: 0}
      m_TileFlags: 1
      m_ColliderType: 1
  - first: {x: 6, y: -4, z: 0}
    second:
      m_TileIndex: 50
      m_TileSpriteIndex: 50
      m_TileMatrixIndex: 0
      m_TileColorIndex: 0
      m_ObjectToInstantiate: {fileID: 0}
      m_TileFlags: 1
      m_ColliderType: 1
  - first: {x: -2, y: -3, z: 0}
    second:
      m_TileIndex: 34
      m_TileSpriteIndex: 34
      m_TileMatrixIndex: 0
      m_TileColorIndex: 0
      m_ObjectToInstantiate: {fileID: 0}
      m_TileFlags: 1
      m_ColliderType: 1
  - first: {x: -1, y: -3, z: 0}
    second:
      m_TileIndex: 35
      m_TileSpriteIndex: 35
      m_TileMatrixIndex: 0
      m_TileColorIndex: 0
      m_ObjectToInstantiate: {fileID: 0}
      m_TileFlags: 1
      m_ColliderType: 1
  - first: {x: 0, y: -3, z: 0}
    second:
      m_TileIndex: 36
      m_TileSpriteIndex: 36
      m_TileMatrixIndex: 0
      m_TileColorIndex: 0
      m_ObjectToInstantiate: {fileID: 0}
      m_TileFlags: 1
      m_ColliderType: 1
  - first: {x: 1, y: -3, z: 0}
    second:
      m_TileIndex: 37
      m_TileSpriteIndex: 37
      m_TileMatrixIndex: 0
      m_TileColorIndex: 0
      m_ObjectToInstantiate: {fileID: 0}
      m_TileFlags: 1
      m_ColliderType: 1
  - first: {x: 2, y: -3, z: 0}
    second:
      m_TileIndex: 38
      m_TileSpriteIndex: 38
      m_TileMatrixIndex: 0
      m_TileColorIndex: 0
      m_ObjectToInstantiate: {fileID: 0}
      m_TileFlags: 1
      m_ColliderType: 1
  - first: {x: 3, y: -3, z: 0}
    second:
      m_TileIndex: 39
      m_TileSpriteIndex: 39
      m_TileMatrixIndex: 0
      m_TileColorIndex: 0
      m_ObjectToInstantiate: {fileID: 0}
      m_TileFlags: 1
      m_ColliderType: 1
  - first: {x: 4, y: -3, z: 0}
    second:
      m_TileIndex: 40
      m_TileSpriteIndex: 40
      m_TileMatrixIndex: 0
      m_TileColorIndex: 0
      m_ObjectToInstantiate: {fileID: 0}
      m_TileFlags: 1
      m_ColliderType: 1
  - first: {x: 5, y: -3, z: 0}
    second:
      m_TileIndex: 41
      m_TileSpriteIndex: 41
      m_TileMatrixIndex: 0
      m_TileColorIndex: 0
      m_ObjectToInstantiate: {fileID: 0}
      m_TileFlags: 1
      m_ColliderType: 1
  - first: {x: 6, y: -3, z: 0}
    second:
      m_TileIndex: 42
      m_TileSpriteIndex: 42
      m_TileMatrixIndex: 0
      m_TileColorIndex: 0
      m_ObjectToInstantiate: {fileID: 0}
      m_TileFlags: 1
      m_ColliderType: 1
  - first: {x: -2, y: -2, z: 0}
    second:
      m_TileIndex: 22
      m_TileSpriteIndex: 22
      m_TileMatrixIndex: 0
      m_TileColorIndex: 0
      m_ObjectToInstantiate: {fileID: 0}
      m_TileFlags: 1
      m_ColliderType: 1
  - first: {x: -1, y: -2, z: 0}
    second:
      m_TileIndex: 23
      m_TileSpriteIndex: 23
      m_TileMatrixIndex: 0
      m_TileColorIndex: 0
      m_ObjectToInstantiate: {fileID: 0}
      m_TileFlags: 1
      m_ColliderType: 1
  - first: {x: 0, y: -2, z: 0}
    second:
      m_TileIndex: 24
      m_TileSpriteIndex: 24
      m_TileMatrixIndex: 0
      m_TileColorIndex: 0
      m_ObjectToInstantiate: {fileID: 0}
      m_TileFlags: 1
      m_ColliderType: 1
  - first: {x: 1, y: -2, z: 0}
    second:
      m_TileIndex: 25
      m_TileSpriteIndex: 25
      m_TileMatrixIndex: 0
      m_TileColorIndex: 0
      m_ObjectToInstantiate: {fileID: 0}
      m_TileFlags: 1
      m_ColliderType: 1
  - first: {x: 2, y: -2, z: 0}
    second:
      m_TileIndex: 26
      m_TileSpriteIndex: 26
      m_TileMatrixIndex: 0
      m_TileColorIndex: 0
      m_ObjectToInstantiate: {fileID: 0}
      m_TileFlags: 1
      m_ColliderType: 1
  - first: {x: 3, y: -2, z: 0}
    second:
      m_TileIndex: 27
      m_TileSpriteIndex: 27
      m_TileMatrixIndex: 0
      m_TileColorIndex: 0
      m_ObjectToInstantiate: {fileID: 0}
      m_TileFlags: 1
      m_ColliderType: 1
  - first: {x: 4, y: -2, z: 0}
    second:
      m_TileIndex: 28
      m_TileSpriteIndex: 28
      m_TileMatrixIndex: 0
      m_TileColorIndex: 0
      m_ObjectToInstantiate: {fileID: 0}
      m_TileFlags: 1
      m_ColliderType: 1
  - first: {x: 5, y: -2, z: 0}
    second:
      m_TileIndex: 29
      m_TileSpriteIndex: 29
      m_TileMatrixIndex: 0
      m_TileColorIndex: 0
      m_ObjectToInstantiate: {fileID: 0}
      m_TileFlags: 1
      m_ColliderType: 1
  - first: {x: 6, y: -2, z: 0}
    second:
      m_TileIndex: 30
      m_TileSpriteIndex: 30
      m_TileMatrixIndex: 0
      m_TileColorIndex: 0
      m_ObjectToInstantiate: {fileID: 0}
      m_TileFlags: 1
      m_ColliderType: 1
  - first: {x: 7, y: -2, z: 0}
    second:
      m_TileIndex: 31
      m_TileSpriteIndex: 31
      m_TileMatrixIndex: 0
      m_TileColorIndex: 0
      m_ObjectToInstantiate: {fileID: 0}
      m_TileFlags: 1
      m_ColliderType: 1
  - first: {x: 8, y: -2, z: 0}
    second:
      m_TileIndex: 32
      m_TileSpriteIndex: 32
      m_TileMatrixIndex: 0
      m_TileColorIndex: 0
      m_ObjectToInstantiate: {fileID: 0}
      m_TileFlags: 1
      m_ColliderType: 1
  - first: {x: 9, y: -2, z: 0}
    second:
      m_TileIndex: 33
      m_TileSpriteIndex: 33
      m_TileMatrixIndex: 0
      m_TileColorIndex: 0
      m_ObjectToInstantiate: {fileID: 0}
      m_TileFlags: 1
      m_ColliderType: 1
  - first: {x: -2, y: -1, z: 0}
    second:
      m_TileIndex: 12
      m_TileSpriteIndex: 12
      m_TileMatrixIndex: 0
      m_TileColorIndex: 0
      m_ObjectToInstantiate: {fileID: 0}
      m_TileFlags: 1
      m_ColliderType: 1
  - first: {x: -1, y: -1, z: 0}
    second:
      m_TileIndex: 13
      m_TileSpriteIndex: 13
      m_TileMatrixIndex: 0
      m_TileColorIndex: 0
      m_ObjectToInstantiate: {fileID: 0}
      m_TileFlags: 1
      m_ColliderType: 1
  - first: {x: 0, y: -1, z: 0}
    second:
      m_TileIndex: 14
      m_TileSpriteIndex: 14
      m_TileMatrixIndex: 0
      m_TileColorIndex: 0
      m_ObjectToInstantiate: {fileID: 0}
      m_TileFlags: 1
      m_ColliderType: 1
  - first: {x: 1, y: -1, z: 0}
    second:
      m_TileIndex: 15
      m_TileSpriteIndex: 15
      m_TileMatrixIndex: 0
      m_TileColorIndex: 0
      m_ObjectToInstantiate: {fileID: 0}
      m_TileFlags: 1
      m_ColliderType: 1
  - first: {x: 3, y: -1, z: 0}
    second:
      m_TileIndex: 16
      m_TileSpriteIndex: 16
      m_TileMatrixIndex: 0
      m_TileColorIndex: 0
      m_ObjectToInstantiate: {fileID: 0}
      m_TileFlags: 1
      m_ColliderType: 1
  - first: {x: 4, y: -1, z: 0}
    second:
      m_TileIndex: 17
      m_TileSpriteIndex: 17
      m_TileMatrixIndex: 0
      m_TileColorIndex: 0
      m_ObjectToInstantiate: {fileID: 0}
      m_TileFlags: 1
      m_ColliderType: 1
  - first: {x: 5, y: -1, z: 0}
    second:
      m_TileIndex: 18
      m_TileSpriteIndex: 18
      m_TileMatrixIndex: 0
      m_TileColorIndex: 0
      m_ObjectToInstantiate: {fileID: 0}
      m_TileFlags: 1
      m_ColliderType: 1
  - first: {x: 6, y: -1, z: 0}
    second:
      m_TileIndex: 19
      m_TileSpriteIndex: 19
      m_TileMatrixIndex: 0
      m_TileColorIndex: 0
      m_ObjectToInstantiate: {fileID: 0}
      m_TileFlags: 1
      m_ColliderType: 1
  - first: {x: 7, y: -1, z: 0}
    second:
      m_TileIndex: 20
      m_TileSpriteIndex: 20
      m_TileMatrixIndex: 0
      m_TileColorIndex: 0
      m_ObjectToInstantiate: {fileID: 0}
      m_TileFlags: 1
      m_ColliderType: 1
  - first: {x: 9, y: -1, z: 0}
    second:
      m_TileIndex: 21
      m_TileSpriteIndex: 21
      m_TileMatrixIndex: 0
      m_TileColorIndex: 0
      m_ObjectToInstantiate: {fileID: 0}
      m_TileFlags: 1
      m_ColliderType: 1
  - first: {x: -2, y: 0, z: 0}
    second:
      m_TileIndex: 0
      m_TileSpriteIndex: 0
      m_TileMatrixIndex: 0
      m_TileColorIndex: 0
      m_ObjectToInstantiate: {fileID: 0}
      m_TileFlags: 1
      m_ColliderType: 1
  - first: {x: -1, y: 0, z: 0}
    second:
      m_TileIndex: 1
      m_TileSpriteIndex: 1
      m_TileMatrixIndex: 0
      m_TileColorIndex: 0
      m_ObjectToInstantiate: {fileID: 0}
      m_TileFlags: 1
      m_ColliderType: 1
  - first: {x: 0, y: 0, z: 0}
    second:
      m_TileIndex: 2
      m_TileSpriteIndex: 2
      m_TileMatrixIndex: 0
      m_TileColorIndex: 0
      m_ObjectToInstantiate: {fileID: 0}
      m_TileFlags: 1
      m_ColliderType: 1
  - first: {x: 1, y: 0, z: 0}
    second:
      m_TileIndex: 3
      m_TileSpriteIndex: 3
      m_TileMatrixIndex: 0
      m_TileColorIndex: 0
      m_ObjectToInstantiate: {fileID: 0}
      m_TileFlags: 1
      m_ColliderType: 1
  - first: {x: 2, y: 0, z: 0}
    second:
      m_TileIndex: 4
      m_TileSpriteIndex: 4
      m_TileMatrixIndex: 0
      m_TileColorIndex: 0
      m_ObjectToInstantiate: {fileID: 0}
      m_TileFlags: 1
      m_ColliderType: 1
  - first: {x: 3, y: 0, z: 0}
    second:
      m_TileIndex: 5
      m_TileSpriteIndex: 5
      m_TileMatrixIndex: 0
      m_TileColorIndex: 0
      m_ObjectToInstantiate: {fileID: 0}
      m_TileFlags: 1
      m_ColliderType: 1
  - first: {x: 4, y: 0, z: 0}
    second:
      m_TileIndex: 6
      m_TileSpriteIndex: 6
      m_TileMatrixIndex: 0
      m_TileColorIndex: 0
      m_ObjectToInstantiate: {fileID: 0}
      m_TileFlags: 1
      m_ColliderType: 1
  - first: {x: 5, y: 0, z: 0}
    second:
      m_TileIndex: 7
      m_TileSpriteIndex: 7
      m_TileMatrixIndex: 0
      m_TileColorIndex: 0
      m_ObjectToInstantiate: {fileID: 0}
      m_TileFlags: 1
      m_ColliderType: 1
  - first: {x: 6, y: 0, z: 0}
    second:
      m_TileIndex: 8
      m_TileSpriteIndex: 8
      m_TileMatrixIndex: 0
      m_TileColorIndex: 0
      m_ObjectToInstantiate: {fileID: 0}
      m_TileFlags: 1
      m_ColliderType: 1
  - first: {x: 7, y: 0, z: 0}
    second:
      m_TileIndex: 9
      m_TileSpriteIndex: 9
      m_TileMatrixIndex: 0
      m_TileColorIndex: 0
      m_ObjectToInstantiate: {fileID: 0}
      m_TileFlags: 1
      m_ColliderType: 1
  - first: {x: 8, y: 0, z: 0}
    second:
      m_TileIndex: 10
      m_TileSpriteIndex: 10
      m_TileMatrixIndex: 0
      m_TileColorIndex: 0
      m_ObjectToInstantiate: {fileID: 0}
      m_TileFlags: 1
      m_ColliderType: 1
  - first: {x: 9, y: 0, z: 0}
    second:
      m_TileIndex: 11
      m_TileSpriteIndex: 11
      m_TileMatrixIndex: 0
      m_TileColorIndex: 0
      m_ObjectToInstantiate: {fileID: 0}
      m_TileFlags: 1
      m_ColliderType: 1
  m_AnimatedTiles: {}
  m_TileAssetArray:
  - m_RefCount: 1
    m_Data: {fileID: 11400000, guid: 076a2318e67a5d7419270b9ec4cef2f7, type: 2}
  - m_RefCount: 1
    m_Data: {fileID: 11400000, guid: 5ade96cd5fff5c046a958ebc2d54d6e8, type: 2}
  - m_RefCount: 1
    m_Data: {fileID: 11400000, guid: 95010b4920ccf34468bcb2aa4fe7038b, type: 2}
  - m_RefCount: 1
    m_Data: {fileID: 11400000, guid: df3200c63076bf840a947cd4d5edc6e5, type: 2}
  - m_RefCount: 1
    m_Data: {fileID: 11400000, guid: 9b90edc9dfcdd7c4a9b3a0d7186aabf9, type: 2}
  - m_RefCount: 1
    m_Data: {fileID: 11400000, guid: dc9a659df59234747abd6aa3c92447ff, type: 2}
  - m_RefCount: 1
    m_Data: {fileID: 11400000, guid: d89be00db5d17db49ae67ad9f027650b, type: 2}
  - m_RefCount: 1
    m_Data: {fileID: 11400000, guid: fca2d481212c17144866ae0aba817025, type: 2}
  - m_RefCount: 1
    m_Data: {fileID: 11400000, guid: d085d2991cd5d1f41abb272e146090df, type: 2}
  - m_RefCount: 1
    m_Data: {fileID: 11400000, guid: a5b40114ac99f164c84484e07abc4606, type: 2}
  - m_RefCount: 1
    m_Data: {fileID: 11400000, guid: 0829cee98e86b904a84c5bcf9f4b4c26, type: 2}
  - m_RefCount: 1
    m_Data: {fileID: 11400000, guid: 3bfc609e34efdf946b3526c4cffd52eb, type: 2}
  - m_RefCount: 1
    m_Data: {fileID: 11400000, guid: 386d0c300852b6c4dadb7245791efda8, type: 2}
  - m_RefCount: 1
    m_Data: {fileID: 11400000, guid: 17cf9e4e44fbc0e4fbb5536173839d06, type: 2}
  - m_RefCount: 1
    m_Data: {fileID: 11400000, guid: f75af35b579c0064683eb1c9ddef7ebc, type: 2}
  - m_RefCount: 1
    m_Data: {fileID: 11400000, guid: 56145d56bf1116f4e803d62a25a54dca, type: 2}
  - m_RefCount: 1
    m_Data: {fileID: 11400000, guid: a619979b0f90e594682306fa9251bad4, type: 2}
  - m_RefCount: 1
    m_Data: {fileID: 11400000, guid: 7e14787f1e907c3468286384fe596a1f, type: 2}
  - m_RefCount: 1
    m_Data: {fileID: 11400000, guid: dc86b3283bf2d8f44b2bd830d9c23dcb, type: 2}
  - m_RefCount: 1
    m_Data: {fileID: 11400000, guid: fc60d97e5fa728347b3c310454cb3c2b, type: 2}
  - m_RefCount: 1
    m_Data: {fileID: 11400000, guid: 3500ad372cd0b8446942a837f1217c06, type: 2}
  - m_RefCount: 1
    m_Data: {fileID: 11400000, guid: c08dca2f59d650d4eb56f94a4977f31b, type: 2}
  - m_RefCount: 1
    m_Data: {fileID: 11400000, guid: 99851958292184b4ca8a47294e5ed815, type: 2}
  - m_RefCount: 1
    m_Data: {fileID: 11400000, guid: 5c2a7a3ab9248c64caeba889348495db, type: 2}
  - m_RefCount: 1
    m_Data: {fileID: 11400000, guid: 196c0294ab8ca14459c6d39fbdc74e38, type: 2}
  - m_RefCount: 1
    m_Data: {fileID: 11400000, guid: 2559eb9835957ec4a95dbb24cbcbf153, type: 2}
  - m_RefCount: 1
    m_Data: {fileID: 11400000, guid: 28ba57f1318566f41905d7387a218539, type: 2}
  - m_RefCount: 1
    m_Data: {fileID: 11400000, guid: 1f0c19f2247cb744fbafb9bb33741013, type: 2}
  - m_RefCount: 1
    m_Data: {fileID: 11400000, guid: 14fc63a987041e14e8553744fc399a57, type: 2}
  - m_RefCount: 1
    m_Data: {fileID: 11400000, guid: fe998450360d21647bc6556a0e9b2e6a, type: 2}
  - m_RefCount: 1
    m_Data: {fileID: 11400000, guid: 5ee58cc6e7068024fa0fa3cfd796a9d1, type: 2}
  - m_RefCount: 1
    m_Data: {fileID: 11400000, guid: c171e95bb7a922f459d8f53d1762f672, type: 2}
  - m_RefCount: 1
    m_Data: {fileID: 11400000, guid: 9dd546e75ea32db4dbd41e8a7f6ded75, type: 2}
  - m_RefCount: 1
    m_Data: {fileID: 11400000, guid: 3068c107d24ebed4ba861167d2d109f9, type: 2}
  - m_RefCount: 1
    m_Data: {fileID: 11400000, guid: 7264783456b839148a323ca114a4a301, type: 2}
  - m_RefCount: 1
    m_Data: {fileID: 11400000, guid: f6d22e59d70da4e4cb50d447405a0577, type: 2}
  - m_RefCount: 1
    m_Data: {fileID: 11400000, guid: c58ac42af8817bb4ebd7227787e5228d, type: 2}
  - m_RefCount: 1
    m_Data: {fileID: 11400000, guid: 3c1d9be228d2d2a48afd1bff2e0ff525, type: 2}
  - m_RefCount: 1
    m_Data: {fileID: 11400000, guid: 0f881ad7b7671e242915ac059393f6bf, type: 2}
  - m_RefCount: 1
    m_Data: {fileID: 11400000, guid: 3285b07038f54d04fbed03e96d704cbf, type: 2}
  - m_RefCount: 1
    m_Data: {fileID: 11400000, guid: a04b8446f2e11df42a11cbead7bd7652, type: 2}
  - m_RefCount: 1
    m_Data: {fileID: 11400000, guid: 4c0871fe81f6d6b46b6b40ac83346b3e, type: 2}
  - m_RefCount: 1
    m_Data: {fileID: 11400000, guid: 6e27de60de3323247bc8db3532d38e61, type: 2}
  - m_RefCount: 1
    m_Data: {fileID: 11400000, guid: 9cbacb2debf822f4bab1c8794861066b, type: 2}
  - m_RefCount: 1
    m_Data: {fileID: 11400000, guid: f11589519fa34b44984bc3a225b7a434, type: 2}
  - m_RefCount: 1
    m_Data: {fileID: 11400000, guid: 2890ebed03a2964448929be83be11d64, type: 2}
  - m_RefCount: 1
    m_Data: {fileID: 11400000, guid: a10137c61fcc61d459b12abb8c547d8f, type: 2}
  - m_RefCount: 1
    m_Data: {fileID: 11400000, guid: 80e0b1dda002b0342b54c81e3d757f9b, type: 2}
  - m_RefCount: 1
    m_Data: {fileID: 11400000, guid: 809ed739a2bbb43489a7e51e320300ed, type: 2}
  - m_RefCount: 1
    m_Data: {fileID: 11400000, guid: d13597d7669b56043a2a392b764db793, type: 2}
  - m_RefCount: 1
    m_Data: {fileID: 11400000, guid: e1b24024db3ae7a43ad2e0dd7f33bb12, type: 2}
  - m_RefCount: 1
    m_Data: {fileID: 11400000, guid: 83df0d24dcb1fda4eb1c1a34ba00a07b, type: 2}
  - m_RefCount: 1
    m_Data: {fileID: 11400000, guid: 239038227a8d9444bbf8ab14e274ed28, type: 2}
  - m_RefCount: 1
    m_Data: {fileID: 11400000, guid: f69db3aa1d4ce4343a7e9331ac731f2b, type: 2}
  - m_RefCount: 1
    m_Data: {fileID: 11400000, guid: ca90dedb11c6a4b44b70c56b682e98f4, type: 2}
  - m_RefCount: 1
    m_Data: {fileID: 11400000, guid: a675f241c6bfd2542984e6cad0488c79, type: 2}
  - m_RefCount: 1
    m_Data: {fileID: 11400000, guid: fc196e128e0248246ad0e79fadd272ea, type: 2}
  m_TileSpriteArray:
  - m_RefCount: 1
    m_Data: {fileID: 5663061954668274717, guid: bd7eab9489c203640b8778ed98dc032b,
      type: 3}
  - m_RefCount: 1
    m_Data: {fileID: 6007627129536956325, guid: bd7eab9489c203640b8778ed98dc032b,
      type: 3}
  - m_RefCount: 1
    m_Data: {fileID: -7486092956772349302, guid: bd7eab9489c203640b8778ed98dc032b,
      type: 3}
  - m_RefCount: 1
    m_Data: {fileID: -3627264120405484348, guid: bd7eab9489c203640b8778ed98dc032b,
      type: 3}
  - m_RefCount: 1
    m_Data: {fileID: -4815885190406460031, guid: bd7eab9489c203640b8778ed98dc032b,
      type: 3}
  - m_RefCount: 1
    m_Data: {fileID: 7477116942032994148, guid: bd7eab9489c203640b8778ed98dc032b,
      type: 3}
  - m_RefCount: 1
    m_Data: {fileID: -396035294860175646, guid: bd7eab9489c203640b8778ed98dc032b,
      type: 3}
  - m_RefCount: 1
    m_Data: {fileID: 8233071653059976297, guid: bd7eab9489c203640b8778ed98dc032b,
      type: 3}
  - m_RefCount: 1
    m_Data: {fileID: -7775419718026629507, guid: bd7eab9489c203640b8778ed98dc032b,
      type: 3}
  - m_RefCount: 1
    m_Data: {fileID: -781294158744790408, guid: bd7eab9489c203640b8778ed98dc032b,
      type: 3}
  - m_RefCount: 1
    m_Data: {fileID: 9061651696941551919, guid: bd7eab9489c203640b8778ed98dc032b,
      type: 3}
  - m_RefCount: 1
    m_Data: {fileID: -6985117363303071740, guid: bd7eab9489c203640b8778ed98dc032b,
      type: 3}
  - m_RefCount: 1
    m_Data: {fileID: 8642771837104280003, guid: bd7eab9489c203640b8778ed98dc032b,
      type: 3}
  - m_RefCount: 1
    m_Data: {fileID: -1762573714345474896, guid: bd7eab9489c203640b8778ed98dc032b,
      type: 3}
  - m_RefCount: 1
    m_Data: {fileID: 11442893378838041, guid: bd7eab9489c203640b8778ed98dc032b, type: 3}
  - m_RefCount: 1
    m_Data: {fileID: -317771678647371661, guid: bd7eab9489c203640b8778ed98dc032b,
      type: 3}
  - m_RefCount: 1
    m_Data: {fileID: -2426843357703420916, guid: bd7eab9489c203640b8778ed98dc032b,
      type: 3}
  - m_RefCount: 1
    m_Data: {fileID: -3642208251427772964, guid: bd7eab9489c203640b8778ed98dc032b,
      type: 3}
  - m_RefCount: 1
    m_Data: {fileID: 3985221016008397036, guid: bd7eab9489c203640b8778ed98dc032b,
      type: 3}
  - m_RefCount: 1
    m_Data: {fileID: 5778961287088506303, guid: bd7eab9489c203640b8778ed98dc032b,
      type: 3}
  - m_RefCount: 1
    m_Data: {fileID: 8758155216525550727, guid: bd7eab9489c203640b8778ed98dc032b,
      type: 3}
  - m_RefCount: 1
    m_Data: {fileID: 6116080786932476827, guid: bd7eab9489c203640b8778ed98dc032b,
      type: 3}
  - m_RefCount: 1
    m_Data: {fileID: -1385786070971223102, guid: bd7eab9489c203640b8778ed98dc032b,
      type: 3}
  - m_RefCount: 1
    m_Data: {fileID: -538331831730588137, guid: bd7eab9489c203640b8778ed98dc032b,
      type: 3}
  - m_RefCount: 1
    m_Data: {fileID: -6923900727490736670, guid: bd7eab9489c203640b8778ed98dc032b,
      type: 3}
  - m_RefCount: 1
    m_Data: {fileID: 5043307788359985916, guid: bd7eab9489c203640b8778ed98dc032b,
      type: 3}
  - m_RefCount: 1
    m_Data: {fileID: -5587653796134901919, guid: bd7eab9489c203640b8778ed98dc032b,
      type: 3}
  - m_RefCount: 1
    m_Data: {fileID: -4272949958406870782, guid: bd7eab9489c203640b8778ed98dc032b,
      type: 3}
  - m_RefCount: 1
    m_Data: {fileID: -4827537604736492380, guid: bd7eab9489c203640b8778ed98dc032b,
      type: 3}
  - m_RefCount: 1
    m_Data: {fileID: 4021183171127385890, guid: bd7eab9489c203640b8778ed98dc032b,
      type: 3}
  - m_RefCount: 1
    m_Data: {fileID: -7967309640338825673, guid: bd7eab9489c203640b8778ed98dc032b,
      type: 3}
  - m_RefCount: 1
    m_Data: {fileID: 1237908169197521079, guid: bd7eab9489c203640b8778ed98dc032b,
      type: 3}
  - m_RefCount: 1
    m_Data: {fileID: 5018706250341604807, guid: bd7eab9489c203640b8778ed98dc032b,
      type: 3}
  - m_RefCount: 1
    m_Data: {fileID: -6468910726198660926, guid: bd7eab9489c203640b8778ed98dc032b,
      type: 3}
  - m_RefCount: 1
    m_Data: {fileID: -6157781805458569218, guid: bd7eab9489c203640b8778ed98dc032b,
      type: 3}
  - m_RefCount: 1
    m_Data: {fileID: 3048538982666575687, guid: bd7eab9489c203640b8778ed98dc032b,
      type: 3}
  - m_RefCount: 1
    m_Data: {fileID: -1518774645772049220, guid: bd7eab9489c203640b8778ed98dc032b,
      type: 3}
  - m_RefCount: 1
    m_Data: {fileID: -3697150339598545061, guid: bd7eab9489c203640b8778ed98dc032b,
      type: 3}
  - m_RefCount: 1
    m_Data: {fileID: -7131273655155896711, guid: bd7eab9489c203640b8778ed98dc032b,
      type: 3}
  - m_RefCount: 1
    m_Data: {fileID: 8621815960616643281, guid: bd7eab9489c203640b8778ed98dc032b,
      type: 3}
  - m_RefCount: 1
    m_Data: {fileID: -6205172343615221245, guid: bd7eab9489c203640b8778ed98dc032b,
      type: 3}
  - m_RefCount: 1
    m_Data: {fileID: 7654806567737475841, guid: bd7eab9489c203640b8778ed98dc032b,
      type: 3}
  - m_RefCount: 1
    m_Data: {fileID: -1702772467812443111, guid: bd7eab9489c203640b8778ed98dc032b,
      type: 3}
  - m_RefCount: 1
    m_Data: {fileID: 576860350140093190, guid: bd7eab9489c203640b8778ed98dc032b, type: 3}
  - m_RefCount: 1
    m_Data: {fileID: 5547708042039842948, guid: bd7eab9489c203640b8778ed98dc032b,
      type: 3}
  - m_RefCount: 1
    m_Data: {fileID: -6017339223957375553, guid: bd7eab9489c203640b8778ed98dc032b,
      type: 3}
  - m_RefCount: 1
    m_Data: {fileID: -4116040823106012581, guid: bd7eab9489c203640b8778ed98dc032b,
      type: 3}
  - m_RefCount: 1
    m_Data: {fileID: 6732870910531023, guid: bd7eab9489c203640b8778ed98dc032b, type: 3}
  - m_RefCount: 1
    m_Data: {fileID: -6831599063569703212, guid: bd7eab9489c203640b8778ed98dc032b,
      type: 3}
  - m_RefCount: 1
    m_Data: {fileID: -5016527918528981960, guid: bd7eab9489c203640b8778ed98dc032b,
      type: 3}
  - m_RefCount: 1
    m_Data: {fileID: 3885819281616729284, guid: bd7eab9489c203640b8778ed98dc032b,
      type: 3}
  - m_RefCount: 1
    m_Data: {fileID: 9192141375248400463, guid: bd7eab9489c203640b8778ed98dc032b,
      type: 3}
  - m_RefCount: 1
    m_Data: {fileID: 293392773991598977, guid: bd7eab9489c203640b8778ed98dc032b, type: 3}
  - m_RefCount: 1
    m_Data: {fileID: -1978880106863730396, guid: bd7eab9489c203640b8778ed98dc032b,
      type: 3}
  - m_RefCount: 1
    m_Data: {fileID: 2815510966112240897, guid: bd7eab9489c203640b8778ed98dc032b,
      type: 3}
  - m_RefCount: 1
    m_Data: {fileID: 3461855256792236426, guid: bd7eab9489c203640b8778ed98dc032b,
      type: 3}
  - m_RefCount: 1
    m_Data: {fileID: -4909924010071155561, guid: bd7eab9489c203640b8778ed98dc032b,
      type: 3}
  m_TileMatrixArray:
  - m_RefCount: 57
    m_Data:
      e00: 1
      e01: 0
      e02: 0
      e03: 0
      e10: 0
      e11: 1
      e12: 0
      e13: 0
      e20: 0
      e21: 0
      e22: 1
      e23: 0
      e30: 0
      e31: 0
      e32: 0
      e33: 1
  m_TileColorArray:
  - m_RefCount: 57
    m_Data: {r: 1, g: 1, b: 1, a: 1}
  m_AnimationFrameRate: 1
  m_Color: {r: 1, g: 1, b: 1, a: 1}
  m_Origin: {x: -2, y: -5, z: 0}
  m_Size: {x: 12, y: 6, z: 1}
  m_TileAnchor: {x: 0.5, y: 0.5, z: 0}
  m_TileOrientation: 0
  m_TileOrientationMatrix:
    e00: 1
    e01: 0
    e02: 0
    e03: 0
    e10: 0
    e11: 1
    e12: 0
    e13: 0
    e20: 0
    e21: 0
    e22: 1
    e23: 0
    e30: 0
    e31: 0
    e32: 0
    e33: 1
--- !u!483693784 &7847717452767377992
TilemapRenderer:
  m_ObjectHideFlags: 0
  m_CorrespondingSourceObject: {fileID: 0}
  m_PrefabInstance: {fileID: 0}
  m_PrefabAsset: {fileID: 0}
  m_GameObject: {fileID: 9180736790668432484}
  m_Enabled: 0
  m_CastShadows: 0
  m_ReceiveShadows: 0
  m_DynamicOccludee: 0
  m_MotionVectors: 1
  m_LightProbeUsage: 0
  m_ReflectionProbeUsage: 0
  m_RenderingLayerMask: 1
  m_RendererPriority: 0
  m_Materials:
  - {fileID: 10754, guid: 0000000000000000f000000000000000, type: 0}
  m_StaticBatchInfo:
    firstSubMesh: 0
    subMeshCount: 0
  m_StaticBatchRoot: {fileID: 0}
  m_ProbeAnchor: {fileID: 0}
  m_LightProbeVolumeOverride: {fileID: 0}
  m_ScaleInLightmap: 1
  m_ReceiveGI: 1
  m_PreserveUVs: 0
  m_IgnoreNormalsForChartDetection: 0
  m_ImportantGI: 0
  m_StitchLightmapSeams: 1
  m_SelectedEditorRenderState: 0
  m_MinimumChartSize: 4
  m_AutoUVMaxDistance: 0.5
  m_AutoUVMaxAngle: 89
  m_LightmapParameters: {fileID: 0}
  m_SortingLayerID: 0
  m_SortingLayer: 0
  m_SortingOrder: 0
  m_ChunkSize: {x: 32, y: 32, z: 32}
  m_ChunkCullingBounds: {x: 0, y: 0, z: 0}
  m_MaxChunkCount: 16
  m_MaxFrameAge: 16
  m_SortOrder: 0
  m_Mode: 0
  m_DetectChunkCullingBounds: 0
  m_MaskInteraction: 0
--- !u!114 &3354690254998064129
MonoBehaviour:
  m_ObjectHideFlags: 0
  m_CorrespondingSourceObject: {fileID: 0}
  m_PrefabInstance: {fileID: 0}
  m_PrefabAsset: {fileID: 0}
  m_GameObject: {fileID: 0}
  m_Enabled: 1
  m_EditorHideFlags: 0
  m_Script: {fileID: 12395, guid: 0000000000000000e000000000000000, type: 0}
  m_Name: Palette Settings
  m_EditorClassIdentifier: 
  cellSizing: 0
